{
  "values":[
    "minecraft:stone",
    "minecraft:andesite",
    "minecraft:diorite",
    "minecraft:granite",
    "minecraft:coal_ore",
    "minecraft:iron_ore",
    "minecraft:gold_ore",
    "minecraft:redstone_ore",
    "minecraft:emerald_ore",
    "minecraft:lapis_ore",
    "minecraft:diamond_ore",
    "minecraft:spawner",
    "minecraft:cobblestone",
    "minecraft:cobblestone_wall"
    ]
}