{
    "criteria": {
        "dungeon1": {
            "trigger": "minecraft:impossible"
        }
    },
    "display": {
        "title": {
            "text": "Dungeon: Winding Horror"
        },
        "description": {
            "text": "Break all Spawners to free the Winding Horror"
        },
        "icon": {
            "item": "minecraft:stone_bricks"
        },
        "frame": "challenge",
        "show_toast": true,
        "announce_to_chat": false,
        "hidden": false
    },
    "requirements": [
        [
            "dungeon1"
        ]
    ],
    "rewards": {
        "loot": [
            "charitydigging:reward_d1"
        ]
    },
    "parent": "charitydigging:charitydigging_root"
}