{
    "criteria": {
        "dungeon3": {
            "trigger": "minecraft:impossible"
        }
    },
    "display": {
        "title": {
            "text": "Dungeon: Blazing Abyss"
        },
        "description": {
            "text": "Break all Spawners to free the Blazing Abyss"
        },
        "icon": {
            "item": "minecraft:netherrack"
        },
        "frame": "challenge",
        "show_toast": true,
        "announce_to_chat": false,
        "hidden": false
    },
    "requirements": [
        [
            "dungeon3"
        ]
    ],
    "rewards": {
        "loot": [
            "charitydigging:reward_d3"
        ]
    },
    "parent": "charitydigging:dungeon2"
}