{
    "criteria": {
        "level09": {
            "trigger": "minecraft:impossible"
        }
    },
    "display": {
        "announce_to_chat": true,
        "description": {
            "text": "Break 77000 blocks to unlock the last pickaxe level"
        },
        "frame": "goal",
        "hidden": false,
        "icon": {
            "item": "minecraft:diamond_pickaxe",
            "nbt": "{Enchantments:[{id:\"minecraft:efficiency\",lvl:5s}],Unbreakable:1}"
        },
        "show_toast": true,
        "title": {
            "text": "Endgame"
        }
    },
    "requirements": [
        [
            "level09"
        ]
    ],
    "rewards": {
        "loot": [
            "charitydigging:reward_09"
        ]
    },
    "parent": "charitydigging:diamond"
}