{
    "criteria": {
        "jumps": {
            "trigger": "minecraft:impossible"
        }
    },
    "display": {
        "title": {
            "text": "Secret: Hopper"
        },
        "description": {
            "text": "Take a leap!"
        },
        "icon": {
            "item": "minecraft:golden_boots",
            "nbt": "{Enchantments:[{id:\"feather_falling\",lvl:4}],Unbreakable:1}"
        },
        "frame": "challenge",
        "show_toast": true,
        "announce_to_chat": true,
        "hidden": true
    },
    "requirements": [
        [
            "jumps"
        ]
    ],
    "rewards": {
        "loot": [
            "charitydigging:reward_jumps"
        ]
    },
    "parent": "charitydigging:charitydigging_root"
}