{
    "criteria": {
        "level04": {
            "trigger": "minecraft:impossible"
        }
    },
    "display": {
        "title": {
            "text": "Stoned"
        },
        "description": {
            "text": "Break 700 blocks for the next enchantment increase"
        },
        "icon": {
            "item": "minecraft:stone_pickaxe",
            "nbt": "{Enchantments:[{id:\"minecraft:efficiency\",lvl:3s}],Unbreakable:1}"
        },
        "frame": "task",
        "show_toast": true,
        "announce_to_chat": true,
        "hidden": false
    },
    "requirements": [
        [
            "level04"
        ]
    ],
    "rewards": {
        "loot": [
            "charitydigging:reward_04"
        ]
    },
    "parent": "charitydigging:upgrade"
}