{
    "criteria": {
        "level03": {
            "trigger": "minecraft:impossible"
        }
    },
    "display": {
        "announce_to_chat": true,
        "description": {
            "text": "Break 250 blocks to upgrade your Pickaxe"
        },
        "frame": "task",
        "hidden": false,
        "icon": {
            "item": "minecraft:stone_pickaxe",
            "nbt": "{Enchantments:[{id:\"minecraft:efficiency\",lvl:2s}],Unbreakable:1}"
        },
        "show_toast": true,
        "title": {
            "text": "Upgrade"
        }
    },
    "requirements": [
        [
            "level03"
        ]
    ],
    "rewards": {
        "loot": [
            "charitydigging:reward_03"
        ]
    },
    "parent": "charitydigging:hundooo"
}