
fill -834 48 154 -776 42 229 stone replace #charitydigging:dungeon2
fill -834 41 154 -776 35 229 stone replace #charitydigging:dungeon2
fill -834 34 154 -776 28 229 stone replace #charitydigging:dungeon2
fill -834 27 154 -776 21 229 stone replace #charitydigging:dungeon2
fill -834 20 154 -776 14 229 stone replace #charitydigging:dungeon2

fill -806 72 195 -801 76 191 air