{
    "display": {
        "title": {
            "text": "Cancer Found!"
        },
        "description": {
            "text": ""
        },
        "icon": {
            "item": "minecraft:ender_eye"
        },
        "frame": "task",
        "show_toast": true,
        "announce_to_chat": false,
        "hidden": false
    },
    "criteria": {
        "kill27": {
            "trigger": "minecraft:player_killed_entity",
            "conditions": {
                "entity": {
                    "type": "minecraft:endermite",
                    "nbt": "{UUIDLeast:39L}"
                }
            }
        }
    },
    "requirements": [
        [
            "kill27"
        ]
    ],
    "rewards": {
        "function": "charityhunt:found"
    },
    "parent": "charityhunt:26"
}