{
  "type": "minecraft:advancement_reward",
  "pools": [
    {
      "rolls": 1,
      "entries": [
        {
          "type": "minecraft:item",
          "name": "minecraft:golden_boots",
          "functions": [
            {
              "function": "minecraft:set_nbt",
              "tag": "{Enchantments:[{id:\"feather_falling\",lvl:4}],Unbreakable:1}"
            },
            {
              "function": "minecraft:set_name",
              "name": {
                "text": "Bunny Boots",
                "italic": false,
                "color": "aqua"
              }
            },
            {
              "function": "minecraft:set_lore",
              "lore": [{
                "text": "Jumb Boost IV",
                "italic": false,
                "color": "gray"
              }]
            }
          ]
        }
      ],
      "conditions": []
    }
  ]
}